﻿[
	{
		"type": "Start",
		"amount": 1000000,
		"date": "2019-03-01"
	},
	{
		"type": "InterestFixing",
		"rate": 0.32,
		"date": "2019-03-01"
	},
	{
		"type": "PaymentPeriodEnd",
		"date": "2019-06-01" 
	},
	{
		"type": "Invoice",
		"periodEnding": "2019-06-01",
		"date": "2019-06-01"
	}
]